-- Merging decision tree log ---
manifest
ADDED from AndroidManifest.xml:2:1
	xmlns:android
		ADDED from AndroidManifest.xml:2:11
	package
		ADDED from AndroidManifest.xml:3:5
		INJECTED from AndroidManifest.xml:0:0
		INJECTED from AndroidManifest.xml:0:0
	android:versionName
		ADDED from AndroidManifest.xml:5:5
		INJECTED from AndroidManifest.xml:0:0
		INJECTED from AndroidManifest.xml:0:0
	android:versionCode
		ADDED from AndroidManifest.xml:4:5
		INJECTED from AndroidManifest.xml:0:0
		INJECTED from AndroidManifest.xml:0:0
uses-permission#android.permission.INTERNET
ADDED from AndroidManifest.xml:7:5
MERGED from com.google.android.gms:play-services-gcm:7.8.0:22:5
MERGED from com.google.android.gms:play-services-maps:7.8.0:21:5
MERGED from com.crashlytics.sdk.android:crashlytics:2.5.2:9:5
MERGED from com.crashlytics.sdk.android:answers:1.3.2:9:5
MERGED from io.fabric.sdk.android:fabric:1.3.6:25:5
MERGED from io.fabric.sdk.android:fabric:1.3.6:25:5
MERGED from com.crashlytics.sdk.android:crashlytics-core:2.3.5:9:5
MERGED from com.crashlytics.sdk.android:answers:1.3.2:9:5
MERGED from io.fabric.sdk.android:fabric:1.3.6:25:5
MERGED from io.fabric.sdk.android:fabric:1.3.6:25:5
MERGED from io.fabric.sdk.android:fabric:1.3.6:25:5
MERGED from com.crashlytics.sdk.android:crashlytics-core:2.3.5:9:5
MERGED from com.crashlytics.sdk.android:answers:1.3.2:9:5
MERGED from io.fabric.sdk.android:fabric:1.3.6:25:5
MERGED from io.fabric.sdk.android:fabric:1.3.6:25:5
	android:name
		ADDED from AndroidManifest.xml:7:22
uses-permission#android.permission.RECEIVE_BOOT_COMPLETED
ADDED from AndroidManifest.xml:8:5
	android:name
		ADDED from AndroidManifest.xml:8:22
uses-permission#android.permission.ACCESS_FINE_LOCATION
ADDED from AndroidManifest.xml:9:5
	android:name
		ADDED from AndroidManifest.xml:9:22
uses-permission#android.permission.WRITE_INTERNAL_STORAGE
ADDED from AndroidManifest.xml:10:5
	android:name
		ADDED from AndroidManifest.xml:10:22
uses-permission#android.permission.READ_INTERNAL_STORAGE
ADDED from AndroidManifest.xml:11:5
	android:name
		ADDED from AndroidManifest.xml:11:22
uses-permission#android.permission.GET_ACCOUNTS
ADDED from AndroidManifest.xml:12:5
	android:name
		ADDED from AndroidManifest.xml:12:22
uses-permission#android.permission.USE_CREDENTIALS
ADDED from AndroidManifest.xml:13:5
	android:name
		ADDED from AndroidManifest.xml:13:22
uses-permission#com.google.android.c2dm.permission.RECEIVE
ADDED from AndroidManifest.xml:16:5
MERGED from com.google.android.gms:play-services-gcm:7.8.0:21:5
	android:name
		ADDED from AndroidManifest.xml:16:22
uses-permission#android.permission.WAKE_LOCK
ADDED from AndroidManifest.xml:17:5
	android:name
		ADDED from AndroidManifest.xml:17:22
permission#gatherspot.gatherspotapp.com.gatherspot.permission.C2D_MESSAGE
ADDED from AndroidManifest.xml:20:5
	android:protectionLevel
		ADDED from AndroidManifest.xml:22:9
	android:name
		ADDED from AndroidManifest.xml:21:9
uses-permission#gatherspot.gatherspotapp.com.gatherspot.permission.C2D_MESSAGE
ADDED from AndroidManifest.xml:24:5
	android:name
		ADDED from AndroidManifest.xml:24:22
uses-feature#android.hardware.camera
ADDED from AndroidManifest.xml:26:5
	android:required
		ADDED from AndroidManifest.xml:28:9
	android:name
		ADDED from AndroidManifest.xml:27:9
application
ADDED from AndroidManifest.xml:31:5
MERGED from com.android.support:support-v4:23.0.1:22:5
MERGED from com.ms-square:expandableTextView:0.1.4:9:5
MERGED from com.android.support:recyclerview-v7:21.0.0:17:5
MERGED from com.android.support:support-v4:23.0.1:22:5
MERGED from com.facebook.android:facebook-android-sdk:4.6.0:28:5
MERGED from com.android.support:support-v4:23.0.1:22:5
MERGED from com.github.dmytrodanylyk.circular-progress-button:library:1.1.3:12:5
MERGED from com.android.support:appcompat-v7:22.2.0:22:5
MERGED from com.android.support:support-v4:23.0.1:22:5
MERGED from com.google.android.gms:play-services-gcm:7.8.0:24:5
MERGED from com.google.android.gms:play-services-base:7.8.0:20:5
MERGED from com.android.support:support-v4:23.0.1:22:5
MERGED from com.google.android.gms:play-services-location:7.8.0:19:5
MERGED from com.google.android.gms:play-services-base:7.8.0:20:5
MERGED from com.android.support:support-v4:23.0.1:22:5
MERGED from com.google.android.gms:play-services-maps:7.8.0:28:5
MERGED from com.google.android.gms:play-services-base:7.8.0:20:5
MERGED from com.android.support:support-v4:23.0.1:22:5
MERGED from com.google.android.gms:play-services-plus:7.8.0:19:5
MERGED from com.google.android.gms:play-services-base:7.8.0:20:5
MERGED from com.android.support:support-v4:23.0.1:22:5
MERGED from com.crashlytics.sdk.android:crashlytics:2.5.2:11:5
MERGED from com.crashlytics.sdk.android:answers:1.3.2:11:5
MERGED from io.fabric.sdk.android:fabric:1.3.6:27:5
MERGED from io.fabric.sdk.android:fabric:1.3.6:27:5
MERGED from com.crashlytics.sdk.android:crashlytics-core:2.3.5:11:5
MERGED from com.crashlytics.sdk.android:answers:1.3.2:11:5
MERGED from io.fabric.sdk.android:fabric:1.3.6:27:5
MERGED from io.fabric.sdk.android:fabric:1.3.6:27:5
MERGED from com.crashlytics.sdk.android:beta:1.1.3:9:5
MERGED from com.crashlytics.sdk.android:crashlytics-ndk:1.1.1:10:5
MERGED from io.fabric.sdk.android:fabric:1.3.6:27:5
MERGED from com.crashlytics.sdk.android:crashlytics-core:2.3.5:11:5
MERGED from com.crashlytics.sdk.android:answers:1.3.2:11:5
MERGED from io.fabric.sdk.android:fabric:1.3.6:27:5
MERGED from io.fabric.sdk.android:fabric:1.3.6:27:5
	android:label
		ADDED from AndroidManifest.xml:35:9
	android:allowBackup
		ADDED from AndroidManifest.xml:33:9
	android:icon
		ADDED from AndroidManifest.xml:34:9
	android:theme
		ADDED from AndroidManifest.xml:36:9
	android:name
		ADDED from AndroidManifest.xml:32:9
activity#gatherspot.gatherspotapp.com.gatherspot.MainActivity
ADDED from AndroidManifest.xml:37:9
	android:screenOrientation
		ADDED from AndroidManifest.xml:40:13
	android:label
		ADDED from AndroidManifest.xml:39:13
	android:theme
		ADDED from AndroidManifest.xml:41:13
	android:name
		ADDED from AndroidManifest.xml:38:13
intent-filter#android.intent.action.MAIN+android.intent.category.DEFAULT
ADDED from AndroidManifest.xml:42:13
action#android.intent.action.MAIN
ADDED from AndroidManifest.xml:43:17
	android:name
		ADDED from AndroidManifest.xml:43:25
category#android.intent.category.DEFAULT
ADDED from AndroidManifest.xml:45:17
	android:name
		ADDED from AndroidManifest.xml:45:27
service#gatherspot.gatherspotapp.com.gatherspot.geolocation.BackgroundLocationService
ADDED from AndroidManifest.xml:49:9
	android:name
		ADDED from AndroidManifest.xml:49:18
receiver#com.google.android.gms.gcm.GcmReceiver
ADDED from AndroidManifest.xml:52:9
	android:exported
		ADDED from AndroidManifest.xml:54:13
	android:permission
		ADDED from AndroidManifest.xml:55:13
	android:name
		ADDED from AndroidManifest.xml:53:13
intent-filter#com.google.android.c2dm.intent.RECEIVE+com.google.android.c2dm.intent.REGISTRATION+gatherspot.gatherspotapp.com.gatherspot
ADDED from AndroidManifest.xml:56:13
action#com.google.android.c2dm.intent.RECEIVE
ADDED from AndroidManifest.xml:57:17
	android:name
		ADDED from AndroidManifest.xml:57:25
action#com.google.android.c2dm.intent.REGISTRATION
ADDED from AndroidManifest.xml:58:17
	android:name
		ADDED from AndroidManifest.xml:58:25
category#gatherspot.gatherspotapp.com.gatherspot
ADDED from AndroidManifest.xml:60:17
	android:name
		ADDED from AndroidManifest.xml:60:27
service#gatherspot.gatherspotapp.com.gatherspot.pushnotf.MyGcmListenerService
ADDED from AndroidManifest.xml:66:9
	android:exported
		ADDED from AndroidManifest.xml:68:13
	android:name
		ADDED from AndroidManifest.xml:67:13
intent-filter#com.google.android.c2dm.intent.RECEIVE
ADDED from AndroidManifest.xml:69:13
service#gatherspot.gatherspotapp.com.gatherspot.pushnotf.MyInstanceIDListenerService
ADDED from AndroidManifest.xml:76:9
	android:exported
		ADDED from AndroidManifest.xml:78:13
	android:name
		ADDED from AndroidManifest.xml:77:13
intent-filter#com.google.android.gms.iid.InstanceID
ADDED from AndroidManifest.xml:79:13
action#com.google.android.gms.iid.InstanceID
ADDED from AndroidManifest.xml:80:17
	android:name
		ADDED from AndroidManifest.xml:80:25
service#gatherspot.gatherspotapp.com.gatherspot.pushnotf.RegistrationIntentService
ADDED from AndroidManifest.xml:85:9
	android:exported
		ADDED from AndroidManifest.xml:87:13
	android:name
		ADDED from AndroidManifest.xml:86:13
meta-data#com.google.android.gms.version
ADDED from AndroidManifest.xml:89:9
MERGED from com.google.android.gms:play-services-base:7.8.0:21:9
MERGED from com.google.android.gms:play-services-base:7.8.0:21:9
MERGED from com.google.android.gms:play-services-base:7.8.0:21:9
MERGED from com.google.android.gms:play-services-base:7.8.0:21:9
	android:name
		ADDED from AndroidManifest.xml:90:13
	android:value
		ADDED from AndroidManifest.xml:91:13
meta-data#com.facebook.sdk.ApplicationId
ADDED from AndroidManifest.xml:92:9
	android:name
		ADDED from AndroidManifest.xml:93:13
	android:value
		ADDED from AndroidManifest.xml:94:13
provider#com.facebook.FacebookContentProvider
ADDED from AndroidManifest.xml:96:9
	android:exported
		ADDED from AndroidManifest.xml:99:13
	android:authorities
		ADDED from AndroidManifest.xml:98:13
	android:name
		ADDED from AndroidManifest.xml:97:13
activity#com.facebook.FacebookActivity
ADDED from AndroidManifest.xml:101:9
	android:label
		ADDED from AndroidManifest.xml:104:13
	android:configChanges
		ADDED from AndroidManifest.xml:103:13
	android:theme
		ADDED from AndroidManifest.xml:105:13
	android:name
		ADDED from AndroidManifest.xml:102:13
activity#gatherspot.gatherspotapp.com.gatherspot.SetupProfilePic
ADDED from AndroidManifest.xml:108:9
	android:screenOrientation
		ADDED from AndroidManifest.xml:110:13
	android:theme
		ADDED from AndroidManifest.xml:111:13
	android:name
		ADDED from AndroidManifest.xml:109:13
intent-filter#android.intent.action.SPP+android.intent.category.DEFAULT
ADDED from AndroidManifest.xml:112:13
action#android.intent.action.SPP
ADDED from AndroidManifest.xml:113:17
	android:name
		ADDED from AndroidManifest.xml:113:25
activity#gatherspot.gatherspotapp.com.gatherspot.TermsClass
ADDED from AndroidManifest.xml:119:9
	android:screenOrientation
		ADDED from AndroidManifest.xml:121:13
	android:theme
		ADDED from AndroidManifest.xml:122:13
	android:name
		ADDED from AndroidManifest.xml:120:13
intent-filter#android.intent.action.TERMS+android.intent.category.DEFAULT
ADDED from AndroidManifest.xml:123:13
action#android.intent.action.TERMS
ADDED from AndroidManifest.xml:124:17
	android:name
		ADDED from AndroidManifest.xml:124:25
activity#gatherspot.gatherspotapp.com.gatherspot.ContactUs
ADDED from AndroidManifest.xml:130:9
	android:screenOrientation
		ADDED from AndroidManifest.xml:132:13
	android:theme
		ADDED from AndroidManifest.xml:133:13
	android:name
		ADDED from AndroidManifest.xml:131:13
intent-filter#android.intent.action.CONTACT+android.intent.category.DEFAULT
ADDED from AndroidManifest.xml:134:13
action#android.intent.action.CONTACT
ADDED from AndroidManifest.xml:135:17
	android:name
		ADDED from AndroidManifest.xml:135:25
activity#gatherspot.gatherspotapp.com.gatherspot.NewPost
ADDED from AndroidManifest.xml:141:9
	android:screenOrientation
		ADDED from AndroidManifest.xml:144:13
	android:noHistory
		ADDED from AndroidManifest.xml:143:13
	android:theme
		ADDED from AndroidManifest.xml:145:13
	android:name
		ADDED from AndroidManifest.xml:142:13
intent-filter#android.intent.action.SEND+android.intent.category.DEFAULT
ADDED from AndroidManifest.xml:146:13
action#android.intent.action.SEND
ADDED from AndroidManifest.xml:147:17
	android:name
		ADDED from AndroidManifest.xml:147:25
data
ADDED from AndroidManifest.xml:150:17
	android:mimeType
		ADDED from AndroidManifest.xml:150:23
activity#gatherspot.gatherspotapp.com.gatherspot.Tutorial
ADDED from AndroidManifest.xml:156:9
	android:screenOrientation
		ADDED from AndroidManifest.xml:159:13
	android:label
		ADDED from AndroidManifest.xml:158:13
	android:theme
		ADDED from AndroidManifest.xml:160:13
	android:name
		ADDED from AndroidManifest.xml:157:13
intent-filter#android.intent.action.TUTORIAL+android.intent.category.DEFAULT
ADDED from AndroidManifest.xml:161:13
action#android.intent.action.TUTORIAL
ADDED from AndroidManifest.xml:162:17
	android:name
		ADDED from AndroidManifest.xml:162:25
activity#gatherspot.gatherspotapp.com.gatherspot.model.FullScreenImageActivity
ADDED from AndroidManifest.xml:167:9
	android:screenOrientation
		ADDED from AndroidManifest.xml:170:13
	android:label
		ADDED from AndroidManifest.xml:169:13
	android:name
		ADDED from AndroidManifest.xml:168:13
intent-filter#android.intent.action.FSIA+android.intent.category.DEFAULT
ADDED from AndroidManifest.xml:171:13
action#android.intent.action.FSIA
ADDED from AndroidManifest.xml:172:17
	android:name
		ADDED from AndroidManifest.xml:172:25
activity#gatherspot.gatherspotapp.com.gatherspot.NewLocalPost
ADDED from AndroidManifest.xml:178:9
	android:windowSoftInputMode
		ADDED from AndroidManifest.xml:183:13
	android:screenOrientation
		ADDED from AndroidManifest.xml:181:13
	android:label
		ADDED from AndroidManifest.xml:180:13
	android:theme
		ADDED from AndroidManifest.xml:182:13
	android:name
		ADDED from AndroidManifest.xml:179:13
intent-filter#android.intent.action.NEWLOCAL+android.intent.category.DEFAULT
ADDED from AndroidManifest.xml:184:13
action#android.intent.action.NEWLOCAL
ADDED from AndroidManifest.xml:185:17
	android:name
		ADDED from AndroidManifest.xml:185:25
activity#gatherspot.gatherspotapp.com.gatherspot.NewPersonalPost
ADDED from AndroidManifest.xml:190:9
	android:windowSoftInputMode
		ADDED from AndroidManifest.xml:194:13
	android:screenOrientation
		ADDED from AndroidManifest.xml:193:13
	android:label
		ADDED from AndroidManifest.xml:192:13
	android:name
		ADDED from AndroidManifest.xml:191:13
intent-filter#android.intent.action.NEWPERSONAL+android.intent.category.DEFAULT
ADDED from AndroidManifest.xml:195:13
action#android.intent.action.NEWPERSONAL
ADDED from AndroidManifest.xml:196:17
	android:name
		ADDED from AndroidManifest.xml:196:25
activity#gatherspot.gatherspotapp.com.gatherspot.CommentsClass
ADDED from AndroidManifest.xml:201:9
	android:windowSoftInputMode
		ADDED from AndroidManifest.xml:206:13
	android:screenOrientation
		ADDED from AndroidManifest.xml:204:13
	android:label
		ADDED from AndroidManifest.xml:203:13
	android:theme
		ADDED from AndroidManifest.xml:205:13
	android:name
		ADDED from AndroidManifest.xml:202:13
intent-filter#android.intent.action.COMMENTS+android.intent.category.DEFAULT
ADDED from AndroidManifest.xml:207:13
action#android.intent.action.COMMENTS
ADDED from AndroidManifest.xml:208:17
	android:name
		ADDED from AndroidManifest.xml:208:25
activity#gatherspot.gatherspotapp.com.gatherspot.UserProfileClass
ADDED from AndroidManifest.xml:213:9
	android:screenOrientation
		ADDED from AndroidManifest.xml:216:13
	android:label
		ADDED from AndroidManifest.xml:215:13
	android:theme
		ADDED from AndroidManifest.xml:217:13
	android:name
		ADDED from AndroidManifest.xml:214:13
activity#gatherspot.gatherspotapp.com.gatherspot.RegisterClass
ADDED from AndroidManifest.xml:224:9
	android:windowSoftInputMode
		ADDED from AndroidManifest.xml:229:13
	android:screenOrientation
		ADDED from AndroidManifest.xml:227:13
	android:label
		ADDED from AndroidManifest.xml:226:13
	android:theme
		ADDED from AndroidManifest.xml:228:13
	android:name
		ADDED from AndroidManifest.xml:225:13
intent-filter#android.intent.action.REGISTER+android.intent.category.DEFAULT
ADDED from AndroidManifest.xml:230:13
action#android.intent.action.REGISTER
ADDED from AndroidManifest.xml:231:17
	android:name
		ADDED from AndroidManifest.xml:231:25
activity#gatherspot.gatherspotapp.com.gatherspot.LoginClass
ADDED from AndroidManifest.xml:236:9
	android:windowSoftInputMode
		ADDED from AndroidManifest.xml:241:13
	android:screenOrientation
		ADDED from AndroidManifest.xml:239:13
	android:label
		ADDED from AndroidManifest.xml:238:13
	android:theme
		ADDED from AndroidManifest.xml:240:13
	android:name
		ADDED from AndroidManifest.xml:237:13
intent-filter#android.intent.action.LOGIN+android.intent.category.DEFAULT
ADDED from AndroidManifest.xml:242:13
action#android.intent.action.LOGIN
ADDED from AndroidManifest.xml:243:17
	android:name
		ADDED from AndroidManifest.xml:243:25
activity#gatherspot.gatherspotapp.com.gatherspot.StartActivity
ADDED from AndroidManifest.xml:248:9
	android:screenOrientation
		ADDED from AndroidManifest.xml:251:13
	android:label
		ADDED from AndroidManifest.xml:250:13
	android:theme
		ADDED from AndroidManifest.xml:252:13
	android:name
		ADDED from AndroidManifest.xml:249:13
intent-filter#android.intent.action.MAIN+android.intent.category.LAUNCHER
ADDED from AndroidManifest.xml:253:13
category#android.intent.category.LAUNCHER
ADDED from AndroidManifest.xml:256:17
	android:name
		ADDED from AndroidManifest.xml:256:27
activity#gatherspot.gatherspotapp.com.gatherspot.RegisterUsername
ADDED from AndroidManifest.xml:259:9
	android:windowSoftInputMode
		ADDED from AndroidManifest.xml:263:13
	android:screenOrientation
		ADDED from AndroidManifest.xml:261:13
	android:theme
		ADDED from AndroidManifest.xml:262:13
	android:name
		ADDED from AndroidManifest.xml:260:13
intent-filter#android.intent.action.ENTERUSERNAME+android.intent.category.DEFAULT
ADDED from AndroidManifest.xml:264:13
action#android.intent.action.ENTERUSERNAME
ADDED from AndroidManifest.xml:265:17
	android:name
		ADDED from AndroidManifest.xml:265:25
activity#gatherspot.gatherspotapp.com.gatherspot.MyProfileSettings
ADDED from AndroidManifest.xml:270:9
	android:screenOrientation
		ADDED from AndroidManifest.xml:273:13
	android:label
		ADDED from AndroidManifest.xml:272:13
	android:theme
		ADDED from AndroidManifest.xml:274:13
	android:name
		ADDED from AndroidManifest.xml:271:13
intent-filter#android.intent.action.PROFILESETTINGS+android.intent.category.DEFAULT
ADDED from AndroidManifest.xml:275:13
action#android.intent.action.PROFILESETTINGS
ADDED from AndroidManifest.xml:276:17
	android:name
		ADDED from AndroidManifest.xml:276:25
activity#gatherspot.gatherspotapp.com.gatherspot.LoginOAuth
ADDED from AndroidManifest.xml:281:9
	android:screenOrientation
		ADDED from AndroidManifest.xml:284:13
	android:label
		ADDED from AndroidManifest.xml:283:13
	android:theme
		ADDED from AndroidManifest.xml:285:13
	android:name
		ADDED from AndroidManifest.xml:282:13
intent-filter#android.intent.action.LOGINGOOGLE+android.intent.category.DEFAULT
ADDED from AndroidManifest.xml:286:13
action#android.intent.action.LOGINGOOGLE
ADDED from AndroidManifest.xml:287:17
	android:name
		ADDED from AndroidManifest.xml:287:25
meta-data#io.fabric.ApiKey
ADDED from AndroidManifest.xml:293:9
	android:name
		ADDED from AndroidManifest.xml:294:13
	android:value
		ADDED from AndroidManifest.xml:295:13
uses-sdk
INJECTED from AndroidManifest.xml:0:0 reason: use-sdk injection requested
MERGED from com.commit451:PhotoView:1.2.4:8:5
MERGED from com.android.support:support-v4:23.0.1:20:5
MERGED from com.daimajia.easing:library:1.0.1:8:5
MERGED from com.ms-square:expandableTextView:0.1.4:5:5
MERGED from com.daimajia.androidanimations:library:1.1.3:8:5
MERGED from com.github.ksoichiro:android-observablescrollview:1.5.0:21:5
MERGED from com.android.support:recyclerview-v7:21.0.0:15:5
MERGED from com.android.support:support-v4:23.0.1:20:5
MERGED from com.facebook.android:facebook-android-sdk:4.6.0:24:5
MERGED from com.android.support:support-v4:23.0.1:20:5
MERGED from com.github.dmytrodanylyk.circular-progress-button:library:1.1.3:8:5
MERGED from com.android.support:appcompat-v7:22.2.0:20:5
MERGED from com.android.support:support-v4:23.0.1:20:5
MERGED from com.google.android.gms:play-services-gcm:7.8.0:18:5
MERGED from com.google.android.gms:play-services-base:7.8.0:18:5
MERGED from com.android.support:support-v4:23.0.1:20:5
MERGED from com.google.android.gms:play-services-location:7.8.0:18:5
MERGED from com.google.android.gms:play-services-base:7.8.0:18:5
MERGED from com.android.support:support-v4:23.0.1:20:5
MERGED from com.google.android.gms:play-services-maps:7.8.0:27:5
MERGED from com.google.android.gms:play-services-base:7.8.0:18:5
MERGED from com.android.support:support-v4:23.0.1:20:5
MERGED from com.google.android.gms:play-services-plus:7.8.0:18:5
MERGED from com.google.android.gms:play-services-base:7.8.0:18:5
MERGED from com.android.support:support-v4:23.0.1:20:5
MERGED from com.crashlytics.sdk.android:crashlytics:2.5.2:7:5
MERGED from com.crashlytics.sdk.android:answers:1.3.2:7:5
MERGED from io.fabric.sdk.android:fabric:1.3.6:23:5
MERGED from io.fabric.sdk.android:fabric:1.3.6:23:5
MERGED from com.crashlytics.sdk.android:crashlytics-core:2.3.5:7:5
MERGED from com.crashlytics.sdk.android:answers:1.3.2:7:5
MERGED from io.fabric.sdk.android:fabric:1.3.6:23:5
MERGED from io.fabric.sdk.android:fabric:1.3.6:23:5
MERGED from com.crashlytics.sdk.android:beta:1.1.3:7:5
MERGED from com.crashlytics.sdk.android:crashlytics-ndk:1.1.1:8:5
MERGED from io.fabric.sdk.android:fabric:1.3.6:23:5
MERGED from com.crashlytics.sdk.android:crashlytics-core:2.3.5:7:5
MERGED from com.crashlytics.sdk.android:answers:1.3.2:7:5
MERGED from io.fabric.sdk.android:fabric:1.3.6:23:5
MERGED from io.fabric.sdk.android:fabric:1.3.6:23:5
	android:targetSdkVersion
		INJECTED from AndroidManifest.xml:0:0
		INJECTED from AndroidManifest.xml:0:0
	android:minSdkVersion
		INJECTED from AndroidManifest.xml:0:0
		INJECTED from AndroidManifest.xml:0:0
activity#android.support.v7.widget.TestActivity
ADDED from com.android.support:recyclerview-v7:21.0.0:18:9
	android:label
		ADDED from com.android.support:recyclerview-v7:21.0.0:18:19
	android:name
		ADDED from com.android.support:recyclerview-v7:21.0.0:18:60
uses-permission#android.permission.ACCESS_NETWORK_STATE
ADDED from com.google.android.gms:play-services-maps:7.8.0:20:5
	android:name
		ADDED from com.google.android.gms:play-services-maps:7.8.0:20:22
uses-permission#android.permission.WRITE_EXTERNAL_STORAGE
ADDED from com.google.android.gms:play-services-maps:7.8.0:22:5
	android:name
		ADDED from com.google.android.gms:play-services-maps:7.8.0:22:22
uses-feature#0x00020000
ADDED from com.google.android.gms:play-services-maps:7.8.0:23:5
	android:required
		ADDED from com.google.android.gms:play-services-maps:7.8.0:25:8
	android:glEsVersion
		ADDED from com.google.android.gms:play-services-maps:7.8.0:24:8
android:uses-permission#android.permission.READ_EXTERNAL_STORAGE
IMPLIED from AndroidManifest.xml:2:1 reason: com.google.android.gms.maps requested WRITE_EXTERNAL_STORAGE
